{
    "color-primary-100": "#FEEBD8",
    "color-primary-200": "#FED1B1",
    "color-primary-300": "#FCB18A",
    "color-primary-400": "#F9926C",
    "color-primary-500": "#F6613D",
    "color-primary-600": "#D3402C",
    "color-primary-700": "#B1251E",
    "color-primary-800": "#8E1317",
    "color-primary-900": "#760B16",
    "color-primary-transparent-100": "rgba(246, 97, 61, 0.08)",
    "color-primary-transparent-200": "rgba(246, 97, 61, 0.16)",
    "color-primary-transparent-300": "rgba(246, 97, 61, 0.24)",
    "color-primary-transparent-400": "rgba(246, 97, 61, 0.32)",
    "color-primary-transparent-500": "rgba(246, 97, 61, 0.4)",
    "color-primary-transparent-600": "rgba(246, 97, 61, 0.48)",
    "color-success-100": "#F5FDDA",
    "color-success-200": "#E9FBB6",
    "color-success-300": "#D5F38F",
    "color-success-400": "#BFE771",
    "color-success-500": "#A0D845",
    "color-success-600": "#80B932",
    "color-success-700": "#649B22",
    "color-success-800": "#497D16",
    "color-success-900": "#37670D",
    "color-success-transparent-100": "rgba(160, 216, 69, 0.08)",
    "color-success-transparent-200": "rgba(160, 216, 69, 0.16)",
    "color-success-transparent-300": "rgba(160, 216, 69, 0.24)",
    "color-success-transparent-400": "rgba(160, 216, 69, 0.32)",
    "color-success-transparent-500": "rgba(160, 216, 69, 0.4)",
    "color-success-transparent-600": "rgba(160, 216, 69, 0.48)",
    "color-info-100": "#DCF1FF",
    "color-info-200": "#B9E0FF",
    "color-info-300": "#96CCFF",
    "color-info-400": "#7CBAFF",
    "color-info-500": "#519CFF",
    "color-info-600": "#3B79DB",
    "color-info-700": "#2859B7",
    "color-info-800": "#193E93",
    "color-info-900": "#0F2A7A",
    "color-info-transparent-100": "rgba(81, 156, 255, 0.08)",
    "color-info-transparent-200": "rgba(81, 156, 255, 0.16)",
    "color-info-transparent-300": "rgba(81, 156, 255, 0.24)",
    "color-info-transparent-400": "rgba(81, 156, 255, 0.32)",
    "color-info-transparent-500": "rgba(81, 156, 255, 0.4)",
    "color-info-transparent-600": "rgba(81, 156, 255, 0.48)",
    "color-warning-100": "#FFF7D9",
    "color-warning-200": "#FFEEB3",
    "color-warning-300": "#FFE28D",
    "color-warning-400": "#FFD671",
    "color-warning-500": "#FFC342",
    "color-warning-600": "#DB9F30",
    "color-warning-700": "#B77E21",
    "color-warning-800": "#935F15",
    "color-warning-900": "#7A490C",
    "color-warning-transparent-100": "rgba(255, 195, 66, 0.08)",
    "color-warning-transparent-200": "rgba(255, 195, 66, 0.16)",
    "color-warning-transparent-300": "rgba(255, 195, 66, 0.24)",
    "color-warning-transparent-400": "rgba(255, 195, 66, 0.32)",
    "color-warning-transparent-500": "rgba(255, 195, 66, 0.4)",
    "color-warning-transparent-600": "rgba(255, 195, 66, 0.48)",
    "color-danger-100": "#FFE7DB",
    "color-danger-200": "#FFCAB8",
    "color-danger-300": "#FFA795",
    "color-danger-400": "#FF867A",
    "color-danger-500": "#FF4F4F",
    "color-danger-600": "#DB3947",
    "color-danger-700": "#B72740",
    "color-danger-800": "#931939",
    "color-danger-900": "#7A0F34",
    "color-danger-transparent-100": "rgba(255, 79, 79, 0.08)",
    "color-danger-transparent-200": "rgba(255, 79, 79, 0.16)",
    "color-danger-transparent-300": "rgba(255, 79, 79, 0.24)",
    "color-danger-transparent-400": "rgba(255, 79, 79, 0.32)",
    "color-danger-transparent-500": "rgba(255, 79, 79, 0.4)",
    "color-danger-transparent-600": "rgba(255, 79, 79, 0.48)",
    "color-basic-100": "#FFFFFF",
    "color-basic-200": "#F7F9FC",
    "color-basic-300": "#EDF1F7",
    "color-basic-400": "#E4E9F2",
    "color-basic-500": "#C5CEE0",
    "color-basic-600": "#8F9BB3",
    "color-basic-700": "#2E3A59",
    "color-basic-800": "#222B45",
    "color-basic-900": "#1A2138",
    "color-basic-1000": "#151A30",
    "color-basic-1100": "#101426",
    "color-basic-transparent-100": "rgba(143, 155, 179, 0.08)",
    "color-basic-transparent-200": "rgba(143, 155, 179, 0.16)",
    "color-basic-transparent-300": "rgba(143, 155, 179, 0.24)",
    "color-basic-transparent-400": "rgba(143, 155, 179, 0.32)",
    "color-basic-transparent-500": "rgba(143, 155, 179, 0.40)",
    "color-basic-transparent-600": "rgba(143, 155, 179, 0.48)",
    "color-basic-control-transparent-100": "rgba(255, 255, 255, 0.08)",
    "color-basic-control-transparent-200": "rgba(255, 255, 255, 0.16)",
    "color-basic-control-transparent-300": "rgba(255, 255, 255, 0.24)",
    "color-basic-control-transparent-400": "rgba(255, 255, 255, 0.32)",
    "color-basic-control-transparent-500": "rgba(255, 255, 255, 0.40)",
    "color-basic-control-transparent-600": "rgba(255, 255, 255, 0.48)",
    "color-basic-focus": "#E4E9F2",
    "color-basic-hover": "#F7F9FC",
    "color-basic-default": "#EDF1F7",
    "color-basic-active": "#E4E9F2",
    "color-basic-disabled": "rgba(143, 155, 179, 0.24)",
    "color-basic-focus-border": "#C5CEE0",
    "color-basic-hover-border": "#F7F9FC",
    "color-basic-default-border": "#EDF1F7",
    "color-basic-active-border": "#E4E9F2",
    "color-basic-disabled-border": "rgba(143, 155, 179, 0.24)",
    "color-basic-transparent-focus": "rgba(143, 155, 179, 0.24)",
    "color-basic-transparent-hover": "rgba(143, 155, 179, 0.16)",
    "color-basic-transparent-default": "rgba(143, 155, 179, 0.08)",
    "color-basic-transparent-active": "rgba(143, 155, 179, 0.24)",
    "color-basic-transparent-disabled": "rgba(143, 155, 179, 0.16)",
    "color-basic-transparent-focus-border": "#8F9BB3",
    "color-basic-transparent-hover-border": "#8F9BB3",
    "color-basic-transparent-default-border": "#8F9BB3",
    "color-basic-transparent-active-border": "#8F9BB3",
    "color-basic-transparent-disabled-border": "rgba(143, 155, 179, 0.24)",
    "color-primary-focus": "#D3402C",
    "color-primary-hover": "#F9926C",
    "color-primary-default": "#F6613D",
    "color-primary-active": "#D3402C",
    "color-primary-disabled": "rgba(143, 155, 179, 0.24)",
    "color-primary-focus-border": "#B1251E",
    "color-primary-hover-border": "#F9926C",
    "color-primary-default-border": "#F6613D",
    "color-primary-active-border": "#D3402C",
    "color-primary-disabled-border": "rgba(143, 155, 179, 0.24)",
    "color-primary-transparent-focus": "rgba(246, 97, 61, 0.24)",
    "color-primary-transparent-hover": "rgba(246, 97, 61, 0.16)",
    "color-primary-transparent-default": "rgba(246, 97, 61, 0.08)",
    "color-primary-transparent-active": "rgba(246, 97, 61, 0.24)",
    "color-primary-transparent-disabled": "rgba(143, 155, 179, 0.16)",
    "color-primary-transparent-focus-border": "#F6613D",
    "color-primary-transparent-hover-border": "#F6613D",
    "color-primary-transparent-default-border": "#F6613D",
    "color-primary-transparent-active-border": "#F6613D",
    "color-primary-transparent-disabled-border": "rgba(143, 155, 179, 0.24)",
    "color-success-focus": "#80B932",
    "color-success-hover": "#BFE771",
    "color-success-default": "#A0D845",
    "color-success-active": "#80B932",
    "color-success-disabled": "rgba(143, 155, 179, 0.24)",
    "color-success-focus-border": "#649B22",
    "color-success-hover-border": "#BFE771",
    "color-success-default-border": "#A0D845",
    "color-success-active-border": "#80B932",
    "color-success-disabled-border": "rgba(143, 155, 179, 0.24)",
    "color-success-transparent-focus": "rgba(160, 216, 69, 0.24)",
    "color-success-transparent-hover": "rgba(160, 216, 69, 0.16)",
    "color-success-transparent-default": "rgba(160, 216, 69, 0.08)",
    "color-success-transparent-active": "rgba(160, 216, 69, 0.24)",
    "color-success-transparent-disabled": "rgba(143, 155, 179, 0.16)",
    "color-success-transparent-focus-border": "#A0D845",
    "color-success-transparent-hover-border": "#A0D845",
    "color-success-transparent-default-border": "#A0D845",
    "color-success-transparent-active-border": "#A0D845",
    "color-success-transparent-disabled-border": "rgba(143, 155, 179, 0.24)",
    "color-info-focus": "#3B79DB",
    "color-info-hover": "#7CBAFF",
    "color-info-default": "#519CFF",
    "color-info-active": "#3B79DB",
    "color-info-disabled": "rgba(143, 155, 179, 0.24)",
    "color-info-focus-border": "#2859B7",
    "color-info-hover-border": "#7CBAFF",
    "color-info-default-border": "#519CFF",
    "color-info-active-border": "#3B79DB",
    "color-info-disabled-border": "rgba(143, 155, 179, 0.24)",
    "color-info-transparent-focus": "rgba(81, 156, 255, 0.24)",
    "color-info-transparent-hover": "rgba(81, 156, 255, 0.16)",
    "color-info-transparent-default": "rgba(81, 156, 255, 0.08)",
    "color-info-transparent-active": "rgba(81, 156, 255, 0.24)",
    "color-info-transparent-disabled": "rgba(143, 155, 179, 0.16)",
    "color-info-transparent-focus-border": "#519CFF",
    "color-info-transparent-hover-border": "#519CFF",
    "color-info-transparent-default-border": "#519CFF",
    "color-info-transparent-active-border": "#519CFF",
    "color-info-transparent-disabled-border": "rgba(143, 155, 179, 0.24)",
    "color-warning-focus": "#DB9F30",
    "color-warning-hover": "#FFD671",
    "color-warning-default": "#FFC342",
    "color-warning-active": "#DB9F30",
    "color-warning-disabled": "rgba(143, 155, 179, 0.24)",
    "color-warning-focus-border": "#B77E21",
    "color-warning-hover-border": "#FFD671",
    "color-warning-default-border": "#FFC342",
    "color-warning-active-border": "#DB9F30",
    "color-warning-disabled-border": "rgba(143, 155, 179, 0.24)",
    "color-warning-transparent-focus": "rgba(255, 195, 66, 0.24)",
    "color-warning-transparent-hover": "rgba(255, 195, 66, 0.16)",
    "color-warning-transparent-default": "rgba(255, 195, 66, 0.08)",
    "color-warning-transparent-active": "rgba(255, 195, 66, 0.24)",
    "color-warning-transparent-disabled": "rgba(143, 155, 179, 0.16)",
    "color-warning-transparent-focus-border": "#FFC342",
    "color-warning-transparent-hover-border": "#FFC342",
    "color-warning-transparent-default-border": "#FFC342",
    "color-warning-transparent-active-border": "#FFC342",
    "color-warning-transparent-disabled-border": "rgba(143, 155, 179, 0.24)",
    "color-danger-focus": "#DB3947",
    "color-danger-hover": "#FF867A",
    "color-danger-default": "#FF4F4F",
    "color-danger-active": "#DB3947",
    "color-danger-disabled": "rgba(143, 155, 179, 0.24)",
    "color-danger-focus-border": "color-danger-700",
    "color-danger-hover-border": "#FF867A",
    "color-danger-default-border": "#FF4F4F",
    "color-danger-active-border": "#DB3947",
    "color-danger-disabled-border": "rgba(143, 155, 179, 0.24)",
    "color-danger-transparent-focus": "rgba(255, 79, 79, 0.24)",
    "color-danger-transparent-hover": "rgba(255, 79, 79, 0.16)",
    "color-danger-transparent-default": "rgba(255, 79, 79, 0.08)",
    "color-danger-transparent-active": "rgba(255, 79, 79, 0.24)",
    "color-danger-transparent-disabled": "rgba(143, 155, 179, 0.16)",
    "color-danger-transparent-focus-border": "#FF4F4F",
    "color-danger-transparent-hover-border": "#FF4F4F",
    "color-danger-transparent-default-border": "#FF4F4F",
    "color-danger-transparent-active-border": "#FF4F4F",
    "color-danger-transparent-disabled-border": "rgba(143, 155, 179, 0.24)",
    "color-control-focus": "#EDF1F7",
    "color-control-hover": "#F7F9FC",
    "color-control-default": "#FFFFFF",
    "color-control-active": "#EDF1F7",
    "color-control-disabled": "rgba(143, 155, 179, 0.24)",
    "color-control-focus-border": "#C5CEE0",
    "color-control-hover-border": "#F7F9FC",
    "color-control-default-border": "#FFFFFF",
    "color-control-active-border": "#EDF1F7",
    "color-control-disabled-border": "rgba(143, 155, 179, 0.24)",
    "color-control-transparent-focus": "rgba(255, 255, 255, 0.24)",
    "color-control-transparent-hover": "rgba(255, 255, 255, 0.16)",
    "color-control-transparent-default": "rgba(255, 255, 255, 0.08)",
    "color-control-transparent-active": "rgba(255, 255, 255, 0.24)",
    "color-control-transparent-disabled": "rgba(143, 155, 179, 0.16)",
    "color-control-transparent-focus-border": "#FFFFFF",
    "color-control-transparent-hover-border": "#FFFFFF",
    "color-control-transparent-default-border": "#FFFFFF",
    "color-control-transparent-active-border": "#FFFFFF",
    "color-control-transparent-disabled-border": "rgba(143, 155, 179, 0.24)",
    "background-basic-color-1": "#222B45",
    "background-basic-color-2": "#1A2138",
    "background-basic-color-3": "#151A30",
    "background-basic-color-4": "#101426",
    "background-alternative-color-1": "#FFFFFF",
    "background-alternative-color-2": "#F7F9FC",
    "background-alternative-color-3": "#EDF1F7",
    "background-alternative-color-4": "#E4E9F2",
    "border-basic-color-1": "#222B45",
    "border-basic-color-2": "#1A2138",
    "border-basic-color-3": "#151A30",
    "border-basic-color-4": "#101426",
    "border-basic-color-5": "#101426",
    "border-alternative-color-1": "#FFFFFF",
    "border-alternative-color-2": "#F7F9FC",
    "border-alternative-color-3": "#EDF1F7",
    "border-alternative-color-4": "#E4E9F2",
    "border-alternative-color-5": "#C5CEE0",
    "border-primary-color-1": "#F6613D",
    "border-primary-color-2": "#D3402C",
    "border-primary-color-3": "#B1251E",
    "border-primary-color-4": "#8E1317",
    "border-primary-color-5": "#760B16",
    "border-success-color-1": "#A0D845",
    "border-success-color-2": "#80B932",
    "border-success-color-3": "#649B22",
    "border-success-color-4": "#497D16",
    "border-success-color-5": "#37670D",
    "border-info-color-1": "#519CFF",
    "border-info-color-2": "#3B79DB",
    "border-info-color-3": "#2859B7",
    "border-info-color-4": "#193E93",
    "border-info-color-5": "#0F2A7A",
    "border-warning-color-1": "#FFC342",
    "border-warning-color-2": "#DB9F30",
    "border-warning-color-3": "#B77E21",
    "border-warning-color-4": "#935F15",
    "border-warning-color-5": "#7A490C",
    "border-danger-color-1": "#FF4F4F",
    "border-danger-color-2": "#DB3947",
    "border-danger-color-3": "#B72740",
    "border-danger-color-4": "#931939",
    "border-danger-color-5": "#7A0F34",
    "text-basic-color": "#FFFFFF",
    "text-alternate-color": "#1A2138",
    "text-control-color": "#FFFFFF",
    "text-disabled-color": "rgba(143, 155, 179, 0.48)",
    "text-hint-color": "#8F9BB3",
    "text-primary-color": "#F6613D",
    "text-primary-focus-color": "#D3402C",
    "text-primary-hover-color": "#F9926C",
    "text-primary-active-color": "#D3402C",
    "text-primary-disabled-color": "#F9926C",
    "text-success-color": "#A0D845",
    "text-success-focus-color": "#80B932",
    "text-success-hover-color": "#BFE771",
    "text-success-active-color": "#80B932",
    "text-success-disabled-color": "#BFE771",
    "text-info-color": "#519CFF",
    "text-info-focus-color": "#3B79DB",
    "text-info-hover-color": "#7CBAFF",
    "text-info-active-color": "#3B79DB",
    "text-info-disabled-color": "#7CBAFF",
    "text-warning-color": "#FFC342",
    "text-warning-focus-color": "#DB9F30",
    "text-warning-hover-color": "#FFD671",
    "text-warning-active-color": "#DB9F30",
    "text-warning-disabled-color": "#FFD671",
    "text-danger-color": "#FF4F4F",
    "text-danger-focus-color": "#DB3947",
    "text-danger-hover-color": "#FF867A",
    "text-danger-active-color": "#DB3947",
    "text-danger-disabled-color": "#FF867A",
    "outline-color": "#2E3A59"
}